1 20
1 1
3 60
888888 888888
999999 999999
1 999999
50 30
12 60
5678 23849
12749 78999
88888 99999
12345 789374
64839 46584
66667 88888
90 30
1 666667
345284 894753
909 576849
32635 26372
844783 61348
945071 270789
174253 584783
963258 82777
275873 998490
775569 932556
607070 697547
101093 879514
885421 29623
39248 457646
251469 626667
2156 251314
9935 263276
686167 609844
800518 305019
900756 917855
987387 101324
609738 470883
206843 3115
790344 150426
846747 459195
412198 446935
597129 32239
390533 10618
75897 483775
817754 271831
721087 719548
988314 470998
940680 833068
75943 300383
82058 450288
292096 723865
714106 183346
731882 911964
381459 548917
582354 102241
481278 945806
337670 81948
580211 620418
785038 262954
20670 458611
429453 995093
580114 999341
53981 875355
321279 834774
954925 176466
847888 746076
985499 252942
121084 750683
218373 460386
304552 336001
63252 720202
439303 990835
22205 764452
57578 327020
948693 177180
959994 417621
183909 820117
638486 432707
736426 727
156327 680009
924355 365919
976485 259922
430851 23927
646126 684070
596812 147576
921439 478025
983100 530085
116544 338581
945801 166254
399572 875425
500174 681210
60139 367157
260052 957871
708141 615496
909357 61619
806353 410576
477858 21092
274075 163891
745 9000
234 789
123 123
5 5
5 700
134422 133678
99999 100000
6574 39484
697954 418770
373274 356
752635 791429
960457 869664
915970 166312
501186 357361
272067 270071
175774 27788
427846 586941
983166 821190
46153 989210
912557 497396
548553 611928
412330 706653
152775 810452
374451 572335
964159 304881
987138 577548
824490 212904
61064 343618
931100 50893
171123 334379
848401 524242
555662 589729
993594 983319
815073 907049
767481 101043
888628 455894
387790 317576
119742 194194
933398 198296
899614 298541
79546 119514
11277 639467
926808 360090
555039 601658
193631 218508
891243 179279
66869 112523
403283 476164
710660 502041
976132 580770
34433 323124
320624 574815
832947 283329
916269 268435
927015 139578
506036 241990
118544 662065
739340 522916
714091 68665
937516 280701
81639 721547
328670 28430
668880 53730
934639 85717
620217 965501
949142 43875
225451 639344
27382 666206
856802 370741
964701 321720
275601 749145
137287 515072
432301 814668
270953 585993
687880 809908
637980 260642
792904 403109
971243 148318
536806 661450
589790 524707
71710 289227
571650 688192
78019 583942
975242 182699
385888 987480
557411 209420
138806 88623
459100 795826
725614 943942
249850 486534
655119 897274
639947 463586
959914 864813
357320 409367
710527 457337
111465 689054
668084 958767
147046 533493
405466 117525
56347 556493
26032 428182
285258 164676
344615 19686
778343 213345
579167 455567
248140 377215
532908 340948
37761 29401
68701 579141
992629 971862
868374 311710
364918 491380
47075 739243
640547 104320
133065 523962
572714 266300
616936 273323
485334 328466
806527 580298
200582 718874
337020 182723
65388 295145
